com\demoapp\backend\service\test\CustomerHandlerTest.class
com\demoapp\backend\service\test\UserHandlerTest.class
com\demoapp\backend\service\test\suit\AllTestCases.class
com\demoapp\backend\service\test\suit\runner\TestSuitRunner.class
