C:\Development\Java\workspaces\selftraining\jpaSample\src\com\demoapp\dao\impl\CustomerHandlerDAOImpl.java
C:\Development\Java\workspaces\selftraining\jpaSample\src\com\demoapp\util\vo\CustomerDetailsVO.java
C:\Development\Java\workspaces\selftraining\jpaSample\src\com\demoapp\dao\CustomerHandlerDAO.java
C:\Development\Java\workspaces\selftraining\jpaSample\src\com\demoapp\services\impl\CustomerHandlerServiceImpl.java
C:\Development\Java\workspaces\selftraining\jpaSample\src\com\demoapp\util\to\CustomerDetailsTO.java
C:\Development\Java\workspaces\selftraining\jpaSample\src\com\demoapp\controller\DemoAppController.java
C:\Development\Java\workspaces\selftraining\jpaSample\src\com\demoapp\entities\Customer.java
C:\Development\Java\workspaces\selftraining\jpaSample\src\com\demoapp\services\CustomerHandlerService.java
