C:\Users\efranca\Development\GitRepository\SelfTraining\Projects\selftrainingapps\DemoAppBackend_JPAHibernateOGM\src\main\java\com\demoapp\backend\mongodb\service\ContactHandlerService.java
C:\Users\efranca\Development\GitRepository\SelfTraining\Projects\selftrainingapps\DemoAppBackend_JPAHibernateOGM\src\main\java\com\demoapp\backend\mongodb\entities\Contact.java
C:\Users\efranca\Development\GitRepository\SelfTraining\Projects\selftrainingapps\DemoAppBackend_JPAHibernateOGM\src\main\java\com\demoapp\backend\mongodb\service\impl\ContactHandlerServiceImpl.java
C:\Users\efranca\Development\GitRepository\SelfTraining\Projects\selftrainingapps\DemoAppBackend_JPAHibernateOGM\src\main\java\com\demoapp\backend\mongodb\dao\ContactHandlerDAO.java
C:\Users\efranca\Development\GitRepository\SelfTraining\Projects\selftrainingapps\DemoAppBackend_JPAHibernateOGM\src\main\java\com\demoapp\backend\mongodb\entities\Address.java
C:\Users\efranca\Development\GitRepository\SelfTraining\Projects\selftrainingapps\DemoAppBackend_JPAHibernateOGM\src\main\java\com\demoapp\backend\mongodb\converter\ContactHandlerConverter.java
C:\Users\efranca\Development\GitRepository\SelfTraining\Projects\selftrainingapps\DemoAppBackend_JPAHibernateOGM\src\main\java\com\demoapp\backend\mongodb\entities\Phone.java
C:\Users\efranca\Development\GitRepository\SelfTraining\Projects\selftrainingapps\DemoAppBackend_JPAHibernateOGM\src\main\java\com\demoapp\backend\mongodb\dao\impl\ContactHandlerDAOImpl.java
C:\Users\efranca\Development\GitRepository\SelfTraining\Projects\selftrainingapps\DemoAppBackend_JPAHibernateOGM\src\main\java\com\demoapp\backend\mongodb\entities\PhoneServiceProvider.java
C:\Users\efranca\Development\GitRepository\SelfTraining\Projects\selftrainingapps\DemoAppBackend_JPAHibernateOGM\src\main\java\com\demoapp\backend\mongodb\dao\util\DemoAppQueries.java
C:\Users\efranca\Development\GitRepository\SelfTraining\Projects\selftrainingapps\DemoAppBackend_JPAHibernateOGM\src\main\java\com\demoapp\backend\mongodb\model\to\ContactTO.java
C:\Users\efranca\Development\GitRepository\SelfTraining\Projects\selftrainingapps\DemoAppBackend_JPAHibernateOGM\src\main\java\com\demoapp\backend\mongodb\exception\DemoAppQueryException.java
C:\Users\efranca\Development\GitRepository\SelfTraining\Projects\selftrainingapps\DemoAppBackend_JPAHibernateOGM\src\main\java\com\demoapp\backend\mongodb\util\EntityManagerUtil.java
C:\Users\efranca\Development\GitRepository\SelfTraining\Projects\selftrainingapps\DemoAppBackend_JPAHibernateOGM\src\main\java\com\demoapp\backend\mongodb\model\vo\ContactVO.java
